Benefits - no need for a stateful widget
no need to handle loading and spinner on your own

Endless loop warning: listen false required!

import 'package:flutter/material.dart';
import 'package:provider/provider.dart';

import '../providers/orders.dart' show Orders;
import '../widgets/order_item.dart';
import '../widgets/app_drawer.dart';

class OrdersScreen extends StatelessWidget {
  static const routeName = '/orders';

  @override
  Widget build(BuildContext context) {
    print('building orders');
    // final orderData = Provider.of<Orders>(context);
    return Scaffold(
      appBar: AppBar(
        title: Text('Your Orders'),
      ),
      drawer: AppDrawer(),
      body: FutureBuilder(
        future: Provider.of<Orders>(context, listen: false).fetchAndSetOrders(),
        builder: (ctx, dataSnapshot) {
          if (dataSnapshot.connectionState == ConnectionState.waiting) {
            return Center(child: CircularProgressIndicator());
          } else {
            if (dataSnapshot.error != null) {
              // ...
              // Do error handling stuff
              return Center(
                child: Text('An error occurred!'),
              );
            } else {
              return Consumer<Orders>(
                builder: (ctx, orderData, child) => ListView.builder(
                      itemCount: orderData.orders.length,
                      itemBuilder: (ctx, i) => OrderItem(orderData.orders[i]),
                    ),
              );
            }
          }
        },
      ),
    );
  }
}
